{
    "photos": {
        "page": 1,
        "pages": 9911,
        "perpage": 50,
        "total": "495521",
        "photo": [
            {
                "id": "48886266891",
                "owner": "34719387@N03",
                "secret": "0b00a5b9c5",
                "server": "65535",
                "farm": 66,
                "title": "Enghien 2019-01-03",
                "ispublic": 1,
                "isfriend": 0,
                "isfamily": 0
            },
            {
                "id": "48886265446",
                "owner": "34719387@N03",
                "secret": "1e18837d23",
                "server": "65535",
                "farm": 66,
                "title": "Enghien 2019-01-03",
                "ispublic": 1,
                "isfriend": 0,
                "isfamily": 0
            },
            {
                "id": "48886264251",
                "owner": "34719387@N03",
                "secret": "d62d893993",
                "server": "65535",
                "farm": 66,
                "title": "Enghien 2019-01-03",
                "ispublic": 1,
                "isfriend": 0,
                "isfamily": 0
            },
            {
                "id": "48886501617",
                "owner": "166745135@N05",
                "secret": "2e41408a40",
                "server": "65535",
                "farm": 66,
                "title": "Quicker to jog, than wait for transport, or downloads over here. Day of my life, wasted. Get me a car again ‍♂️😅 #Escapethepovertytraps People don't rely on public transport, so much. A Vietnamese boatman might struggle to last a week in Las V",
                "ispublic": 1,
                "isfriend": 0,
                "isfamily": 0
            },
            {
                "id": "48885755526",
                "owner": "22860957@N02",
                "secret": "f50b576697",
                "server": "65535",
                "farm": 66,
                "title": "THE WAR OF THE INDEPENDENTS!  FRONT AND BACK COVERS NUMBER 4 WITH THE TICK",
                "ispublic": 1,
                "isfriend": 0,
                "isfamily": 0
            },
            {
                "id": "48885704122",
                "owner": "182503015@N08",
                "secret": "55ee0841ca",
                "server": "65535",
                "farm": 66,
                "title": "A nice plant my sis made (kinda) in one of her classes . . #rprogramming #100daysofcode #coders #softwaredevelopers #coderlifes #latopa #coderworlds #learnprogramming #coderslife #programminglanguage #cprogramming #100daysofcodechallenge #programmingfun #",
                "ispublic": 1,
                "isfriend": 0,
                "isfamily": 0
            },
            {
                "id": "48884851713",
                "owner": "99117185@N00",
                "secret": "57fbc5a5b4",
                "server": "65535",
                "farm": 66,
                "title": "A runaway Llama at Sacsayhuamán - Cusco Peru",
                "ispublic": 1,
                "isfriend": 0,
                "isfamily": 0
            },
            {
                "id": "48884806163",
                "owner": "184950633@N07",
                "secret": "1b571c6fa3",
                "server": "65535",
                "farm": 66,
                "title": "Looking Up at the Past",
                "ispublic": 1,
                "isfriend": 0,
                "isfamily": 0
            },
            {
                "id": "48885347336",
                "owner": "184950633@N07",
                "secret": "d6a7135480",
                "server": "65535",
                "farm": 66,
                "title": "Birds Eye View Of NYC 1971",
                "ispublic": 1,
                "isfriend": 0,
                "isfamily": 0
            },
            {
                "id": "48885347256",
                "owner": "184950633@N07",
                "secret": "607314bdba",
                "server": "65535",
                "farm": 66,
                "title": "PETIT TIGHTROPE TWIN TOWERS",
                "ispublic": 1,
                "isfriend": 0,
                "isfamily": 0
            },
            {
                "id": "48885347006",
                "owner": "184950633@N07",
                "secret": "79a18bca33",
                "server": "65535",
                "farm": 66,
                "title": "Twins",
                "ispublic": 1,
                "isfriend": 0,
                "isfamily": 0
            },
            {
                "id": "48885346821",
                "owner": "184950633@N07",
                "secret": "f5665aae5c",
                "server": "65535",
                "farm": 66,
                "title": "Philippe Petit's Performs High-Wire Walk Between the Twin Towers in 1974",
                "ispublic": 1,
                "isfriend": 0,
                "isfamily": 0
            },
            {
                "id": "48884809758",
                "owner": "184950633@N07",
                "secret": "830b7734e6",
                "server": "65535",
                "farm": 66,
                "title": "George Willig",
                "ispublic": 1,
                "isfriend": 0,
                "isfamily": 0
            },
            {
                "id": "48885526992",
                "owner": "184950633@N07",
                "secret": "c9a2fcb6fc",
                "server": "65535",
                "farm": 66,
                "title": "George Willig",
                "ispublic": 1,
                "isfriend": 0,
                "isfamily": 0
            },
            {
                "id": "48885346616",
                "owner": "184950633@N07",
                "secret": "2fc64a4d97",
                "server": "65535",
                "farm": 66,
                "title": "George Willig",
                "ispublic": 1,
                "isfriend": 0,
                "isfamily": 0
            },
            {
                "id": "48885526867",
                "owner": "184950633@N07",
                "secret": "0b5557d287",
                "server": "65535",
                "farm": 66,
                "title": "WTC 1971",
                "ispublic": 1,
                "isfriend": 0,
                "isfamily": 0
            },
            {
                "id": "48885346451",
                "owner": "184950633@N07",
                "secret": "7021ba73dc",
                "server": "65535",
                "farm": 66,
                "title": "World Trade Center Twin Towers Ariel View 1976",
                "ispublic": 1,
                "isfriend": 0,
                "isfamily": 0
            },
            {
                "id": "48885526727",
                "owner": "184950633@N07",
                "secret": "26432fa8ed",
                "server": "65535",
                "farm": 66,
                "title": "Lower Manhattan",
                "ispublic": 1,
                "isfriend": 0,
                "isfamily": 0
            },
            {
                "id": "48885526622",
                "owner": "184950633@N07",
                "secret": "5e42706b1a",
                "server": "65535",
                "farm": 66,
                "title": "Construction",
                "ispublic": 1,
                "isfriend": 0,
                "isfamily": 0
            },
            {
                "id": "48885346391",
                "owner": "184950633@N07",
                "secret": "d16f58207a",
                "server": "65535",
                "farm": 66,
                "title": "Nighttime For NYC",
                "ispublic": 1,
                "isfriend": 0,
                "isfamily": 0
            },
            {
                "id": "48885526642",
                "owner": "184950633@N07",
                "secret": "7414ce1ee9",
                "server": "65535",
                "farm": 66,
                "title": "Twins By Night",
                "ispublic": 1,
                "isfriend": 0,
                "isfamily": 0
            },
            {
                "id": "48884809223",
                "owner": "184950633@N07",
                "secret": "1be6e4460a",
                "server": "65535",
                "farm": 66,
                "title": "Bicentennial  1976    Operation Sail",
                "ispublic": 1,
                "isfriend": 0,
                "isfamily": 0
            },
            {
                "id": "48885526557",
                "owner": "184950633@N07",
                "secret": "0142841edf",
                "server": "65535",
                "farm": 66,
                "title": "July 4th, 1976",
                "ispublic": 1,
                "isfriend": 0,
                "isfamily": 0
            },
            {
                "id": "48884809188",
                "owner": "184950633@N07",
                "secret": "4c2611d593",
                "server": "65535",
                "farm": 66,
                "title": "A Trashy New York",
                "ispublic": 1,
                "isfriend": 0,
                "isfamily": 0
            },
            {
                "id": "48885346156",
                "owner": "184950633@N07",
                "secret": "2435f0ec16",
                "server": "65535",
                "farm": 66,
                "title": "78C6711A-739A-4A7C-BB97-392116985BCC",
                "ispublic": 1,
                "isfriend": 0,
                "isfamily": 0
            },
            {
                "id": "48885346051",
                "owner": "184950633@N07",
                "secret": "54b0f312d5",
                "server": "65535",
                "farm": 66,
                "title": "ABEFF3B5-4004-4ED2-967A-B5CABE69DD2E",
                "ispublic": 1,
                "isfriend": 0,
                "isfamily": 0
            },
            {
                "id": "48884808928",
                "owner": "184950633@N07",
                "secret": "308a5f9ec8",
                "server": "65535",
                "farm": 66,
                "title": "Two Towers, One Design",
                "ispublic": 1,
                "isfriend": 0,
                "isfamily": 0
            },
            {
                "id": "48884806738",
                "owner": "184950633@N07",
                "secret": "2479436c1f",
                "server": "65535",
                "farm": 66,
                "title": "Blackout",
                "ispublic": 1,
                "isfriend": 0,
                "isfamily": 0
            },
            {
                "id": "48885524272",
                "owner": "184950633@N07",
                "secret": "40de5475a0",
                "server": "65535",
                "farm": 66,
                "title": "Blackout in New York City",
                "ispublic": 1,
                "isfriend": 0,
                "isfamily": 0
            },
            {
                "id": "48884806558",
                "owner": "184950633@N07",
                "secret": "ec51b9395d",
                "server": "65535",
                "farm": 66,
                "title": "WILLIG PETIT WTC",
                "ispublic": 1,
                "isfriend": 0,
                "isfamily": 0
            },
            {
                "id": "48885524082",
                "owner": "184950633@N07",
                "secret": "94a0ea11ee",
                "server": "65535",
                "farm": 66,
                "title": "A Lost Skyline",
                "ispublic": 1,
                "isfriend": 0,
                "isfamily": 0
            },
            {
                "id": "48885343721",
                "owner": "184950633@N07",
                "secret": "f82d6e929e",
                "server": "65535",
                "farm": 66,
                "title": "Glowing Towers",
                "ispublic": 1,
                "isfriend": 0,
                "isfamily": 0
            },
            {
                "id": "48885343676",
                "owner": "184950633@N07",
                "secret": "40aa48dbcd",
                "server": "65535",
                "farm": 66,
                "title": "WTC",
                "ispublic": 1,
                "isfriend": 0,
                "isfamily": 0
            },
            {
                "id": "48885523857",
                "owner": "184950633@N07",
                "secret": "8c942d9e80",
                "server": "65535",
                "farm": 66,
                "title": "Rising Behemoths",
                "ispublic": 1,
                "isfriend": 0,
                "isfamily": 0
            },
            {
                "id": "48885343511",
                "owner": "184950633@N07",
                "secret": "6ea4f40ec2",
                "server": "65535",
                "farm": 66,
                "title": "The Last Thing You’d Expect To See In New York, GRASS",
                "ispublic": 1,
                "isfriend": 0,
                "isfamily": 0
            },
            {
                "id": "48885523772",
                "owner": "184950633@N07",
                "secret": "45e010a0ee",
                "server": "65535",
                "farm": 66,
                "title": "WTC",
                "ispublic": 1,
                "isfriend": 0,
                "isfamily": 0
            },
            {
                "id": "48884806228",
                "owner": "184950633@N07",
                "secret": "63b1ba224f",
                "server": "65535",
                "farm": 66,
                "title": "Standing Tall",
                "ispublic": 1,
                "isfriend": 0,
                "isfamily": 0
            },
            {
                "id": "48884166378",
                "owner": "165372711@N07",
                "secret": "7703f8a943",
                "server": "65535",
                "farm": 66,
                "title": "How to Hire A Virtual Assistant - 24 task",
                "ispublic": 1,
                "isfriend": 0,
                "isfamily": 0
            },
            {
                "id": "48883600418",
                "owner": "12421130@N04",
                "secret": "db734d186d",
                "server": "65535",
                "farm": 66,
                "title": "1985 Opel Corsa A SR",
                "ispublic": 1,
                "isfriend": 0,
                "isfamily": 0
            },
            {
                "id": "48884275862",
                "owner": "158318408@N03",
                "secret": "2cd507a513",
                "server": "65535",
                "farm": 66,
                "title": "Mormafa",
                "ispublic": 1,
                "isfriend": 0,
                "isfamily": 0
            },
            {
                "id": "48883528783",
                "owner": "183792636@N07",
                "secret": "d22fbee9c8",
                "server": "65535",
                "farm": 66,
                "title": "[ Cover / Reprise ] – Tout donner – A FOND – Maître Gims – David – Fils de Ange Momone – AM&D",
                "ispublic": 1,
                "isfriend": 0,
                "isfamily": 0
            },
            {
                "id": "48882529818",
                "owner": "10188381@N08",
                "secret": "8758832db3",
                "server": "65535",
                "farm": 66,
                "title": "A bottle of Stella beer from Window on the Nile @ Sofitel Cairo El Gezirah",
                "ispublic": 1,
                "isfriend": 0,
                "isfamily": 0
            },
            {
                "id": "48882434523",
                "owner": "83324088@N02",
                "secret": "5279c32ac9",
                "server": "65535",
                "farm": 66,
                "title": "A-582",
                "ispublic": 1,
                "isfriend": 0,
                "isfamily": 0
            },
            {
                "id": "48883058107",
                "owner": "10188381@N08",
                "secret": "0974c9ceb5",
                "server": "65535",
                "farm": 66,
                "title": "A stuffed pigeon #1 from El Gomhuria Restaurant in Cairo",
                "ispublic": 1,
                "isfriend": 0,
                "isfamily": 0
            },
            {
                "id": "48882868656",
                "owner": "10188381@N08",
                "secret": "7e43456db8",
                "server": "65535",
                "farm": 66,
                "title": "A bottle of stella beer @ Sofitel Cairo El Gezirah",
                "ispublic": 1,
                "isfriend": 0,
                "isfamily": 0
            },
            {
                "id": "48882340378",
                "owner": "10188381@N08",
                "secret": "35b9a50d0c",
                "server": "65535",
                "farm": 66,
                "title": "A stuffed pigeon #2 from El Gomhuria Restaurant in Cairo",
                "ispublic": 1,
                "isfriend": 0,
                "isfamily": 0
            },
            {
                "id": "48882177633",
                "owner": "7941832@N06",
                "secret": "731a8c3d72",
                "server": "65535",
                "farm": 66,
                "title": "Cadillac Ranch",
                "ispublic": 1,
                "isfriend": 0,
                "isfamily": 0
            },
            {
                "id": "48882032768",
                "owner": "184888730@N02",
                "secret": "f6fa1f3efa",
                "server": "65535",
                "farm": 66,
                "title": "#Giuliani | A Giuliani associate also worked for indicted Ukrainian oligarch | via http://allGraph.ro - #Giuliani",
                "ispublic": 1,
                "isfriend": 0,
                "isfamily": 0
            },
            {
                "id": "48881888202",
                "owner": "184695575@N08",
                "secret": "4d7b7e344b",
                "server": "65535",
                "farm": 66,
                "title": "barefoot",
                "ispublic": 1,
                "isfriend": 0,
                "isfamily": 0
            }
        ]
    },
    "stat": "ok"
}